<svg width="48" height="48" viewBox="0 0 48 48" fill="none" xmlns="http://www.w3.org/2000/svg">
<rect width="48" height="48" fill="#1E1E1E"/>
<g id="Cleaning Services 4 " clip-path="url(#clip0_0_1)">
<rect width="1920" height="9339" transform="translate(-316 -4121)" fill="white"/>
<g id="Why Choose us">
<g id="Group 1000008055">
<rect id="BG" x="-316" y="-426" width="1920" height="1046" fill="#F4F9FD"/>
<g id="Group 1000008032">
<g id="Group 1000007984">
<g id="Group 1000007771">
<circle id="Ellipse 30" cx="24" cy="24" r="40" fill="#FE6B01" fill-opacity="0.1"/>
<g id="hail_black_24dp 1" clip-path="url(#clip1_0_1)">
<path id="Vector" d="M24 12C21.8 12 20 10.2 20 8C20 5.8 21.8 4 24 4C26.2 4 28 5.8 28 8C28 10.2 26.2 12 24 12ZM34 4H38V4.8C37.8 9.2 36.4 12.6 33.4 15C32.4 15.8 31.2 16.4 30 16.8V44H26V32H22V44H18V20.2C17.4 20.4 17 20.6 16.8 20.8C15 22.2 14.02 24 14 27V28H10V27C10 23 11.42 19.82 14.22 17.42C16.42 15.62 20 14 24 14C28 14 29.36 13.08 30.96 11.88C32.96 10.28 34 8 34 5V4ZM8 32H14V44H8V32Z" fill="#FF8345"/>
</g>
</g>
</g>
</g>
</g>
</g>
</g>
<defs>
<clipPath id="clip0_0_1">
<rect width="1920" height="9339" fill="white" transform="translate(-316 -4121)"/>
</clipPath>
<clipPath id="clip1_0_1">
<rect width="48" height="48" fill="white"/>
</clipPath>
</defs>
</svg>
